…
> bet8.5and8<-filter(chhh,grade >=8 & grade< 8.5 )
> bet8.5and8
# A tibble: 6 x 2
  roll.no    grade
  <chr>      <dbl>
1 15071A05F6  8.45
2 15071A05E3  8.44
3 15071A05G0  8.37
4 15071A05C6  8.31
5 15071A05G3  8.23
6 15071A05F8  8.05

> less8<-filter(chhh,grade<8)
> less8
# A tibble: 25 x 2
   roll.no    grade
   <chr>      <dbl>
 1 15071A05D2  7.90
 2 15071A05H4  7.79
 3 15071A05H6  7.77
 4 15071A05F1  7.51
 5 16075A0525  7.50
 6 16075A0530  7.50
 7 16075A0529  7.40
 8 15071A05H9  7.37
 9 15071A05E7  7.33
10 16075A0536  7.30
# ... with 15 more rows

> finalchhh<-rbind(great9[sample(nrow(great9)),],bet8.5and9[sample(nrow(bet8.5and9)),],bet8.5and8[sample(nrow(bet8.5and8)),],less8[sample(nrow(less8)),])
> finalchhh
# A tibble: 68 x 2
   roll.no    grade
   <chr>      <dbl>
 1 15071A05D5  9.43
 2 15071A05G5  9.37
 3 15071A05F2  9.04
 4 15071A05H2  9.11
 5 15071A05E6  9.31
 6 15071A05G7  9.22
 7 15071A05E8  9.31
 8 15071A05C1  9.40
 9 15071A05E4  9.27
10 15071A05G6  9.56
# ... with 58 more rows
…
